\relax 
\providecommand\hyper@newdestlabel[2]{}
\catcode `"\active 
\providecommand\HyperFirstAtBeginDocument{\AtBeginDocument}
\HyperFirstAtBeginDocument{\ifx\hyper@anchor\@undefined
\global\let\oldcontentsline\contentsline
\gdef\contentsline#1#2#3#4{\oldcontentsline{#1}{#2}{#3}}
\global\let\oldnewlabel\newlabel
\gdef\newlabel#1#2{\newlabelxx{#1}#2}
\gdef\newlabelxx#1#2#3#4#5#6{\oldnewlabel{#1}{{#2}{#3}}}
\AtEndDocument{\ifx\hyper@anchor\@undefined
\let\contentsline\oldcontentsline
\let\newlabel\oldnewlabel
\fi}
\fi}
\global\let\hyper@last\relax 
\gdef\HyperFirstAtBeginDocument#1{#1}
\providecommand\HyField@AuxAddToFields[1]{}
\providecommand\HyField@AuxAddToCoFields[2]{}
\bibstyle{plain}
\select@language{slovene}
\@writefile{toc}{\select@language{slovene}}
\@writefile{lof}{\select@language{slovene}}
\@writefile{lot}{\select@language{slovene}}
\@writefile{toc}{\contentsline {section}{\numberline {1}Povzetek}{1}{section.1}}
\citation{nasadistribution}
\citation{presekvega,wikimoon,wikiluna,enciklopedijavesolja}
\citation{wikikrater}
\@writefile{toc}{\contentsline {section}{\numberline {2}Uvod}{2}{section.2}}
\@writefile{toc}{\contentsline {subsection}{\numberline {2.1}Naloga}{2}{subsection.2.1}}
\@writefile{toc}{\contentsline {subsubsection}{\numberline {2.1.1}Obstoje\v {c}e raziskave}{2}{subsubsection.2.1.1}}
\@writefile{toc}{\contentsline {subsection}{\numberline {2.2}Luna}{2}{subsection.2.2}}
\@writefile{toc}{\contentsline {subsubsection}{\numberline {2.2.1}Udarni kraterji}{2}{subsubsection.2.2.1}}
\@writefile{toc}{\contentsline {section}{\numberline {3}Opazovanje}{3}{section.3}}
\@writefile{toc}{\contentsline {section}{\numberline {4}Rezultati}{4}{section.4}}
\@writefile{toc}{\contentsline {subsection}{\numberline {4.1}Obdelava podatkov}{4}{subsection.4.1}}
\@writefile{toc}{\contentsline {subsection}{\numberline {4.2}Rezultati meritev}{4}{subsection.4.2}}
\@writefile{toc}{\contentsline {section}{\numberline {5}Zaklju\IeC {\v c}ki}{5}{section.5}}
\bibcite{presekvega}{{1}{}{{}}{{}}}
\bibcite{wikimoon}{{2}{}{{}}{{}}}
\bibcite{wikiluna}{{3}{}{{}}{{}}}
\bibcite{wikikrater}{{4}{}{{}}{{}}}
\bibcite{nasadistribution}{{5}{}{{}}{{}}}
\bibcite{enciklopedijavesolja}{{6}{}{{}}{{}}}
\bibcite{physicsbook}{{7}{}{{}}{{}}}
\providecommand\NAT@force@numbers{}\NAT@force@numbers
\@writefile{toc}{\contentsline {section}{\numberline {6}Viri}{6}{section.6}}
